[1;1H[2J --------------------------------------------------
-                                                                 xxxxxxx                            
-                                                                         x                          
-                                                                xxx x    xx                       xx
-                                                                  x      x                        xx
-                                                                   xx      x                        
-                                                                   x      x x                       
-                                                                     xxxxxx xx                      
-                                                                xxx         xx                      
-                                                         x        x    x x  xx                      
-                                                       xx x                 x                       
-                           xx                          x xxx            xxxx                        
-                           xx                    xxx  x  xxx            x x                         
-                                                xxxxxx    xxx      xxx     x                        
-                                                x    x      xx             xxx                      
-                                                   xx        x               x                      
-     x                                          x xx        xx             x x                      
-     x                                          xxx                        xx                       
-     x                 x                         x                     xxxx                         
-                      x x                                                xx                         
-                      x x                                                                 x         
-                       x                                                                  x         
-                                                                                          x         
-                                                                                                    
-                                                                                                    
-                                                                                                    
-                                                xx                                                  
-                                                xx                                                  
-                                                                                                    
-                                                                                                    
-                                                                                                    
-                                                                xx          xxx                   xx
-                                                                xx                                xx
-             xx                                                                                     
-             xx                        x                                                            
-                      x               x x                                                           
-                      x               xx      xxx                                                   
-                      x                                                                             
-                                                                                                  x 
-                                                                                                 x x
-                                                                                                 xx 
-                                                                                                    
-                                                                                                    
-                                                          xx                                        
-                                                         x  x                                       
-                                                          x x                                       
-                                                           x                                        
-                                                                    xx                              
-                                                                    xx                              
-                                                                                                    
-                                                                                                    
==============================
Formas detectadas: 

	Bloque: 15
	Colmena vertical: 1
	Colmena horizontal: 0
	Hogaza: 1
	Bote: 0
	Tina: 0
==============================
